<svg xmlns="http://www.w3.org/2000/svg" xmlns:xlink="http://www.w3.org/1999/xlink" width="94" height="94" viewBox="0 0 94 94">
  <defs>
    <filter id="Rectangle_10186" x="0" y="0" width="94" height="94" filterUnits="userSpaceOnUse">
      <feOffset input="SourceAlpha"/>
      <feGaussianBlur stdDeviation="5" result="blur"/>
      <feFlood flood-opacity="0.204"/>
      <feComposite operator="in" in2="blur"/>
      <feComposite in="SourceGraphic"/>
    </filter>
  </defs>
  <g id="Group_18737" data-name="Group 18737" transform="translate(-283 -527)">
    <g transform="matrix(1, 0, 0, 1, 283, 527)" filter="url(#Rectangle_10186)">
      <rect id="Rectangle_10186-2" data-name="Rectangle 10186" width="64" height="64" rx="15" transform="translate(15 15)" fill="#ffa800"/>
    </g>
    <g id="store_2_" data-name="store (2)" transform="translate(309 540.108)">
      <path id="Path_52336" data-name="Path 52336" d="M11.172,9.972a.651.651,0,0,0-.651.651v2.491l2.9.926,2.9-.927V9.972Z" transform="translate(-7.673 0)" fill="#ededed"/>
      <path id="Path_52337" data-name="Path 52337" d="M31.912,13.113V9.972H37.7v3.141l-2.9.927Z" transform="translate(-23.273 0)" fill="#ffd584"/>
      <path id="Path_52338" data-name="Path 52338" d="M53.3,13.113V9.972h5.791v3.141l-2.9.927Z" transform="translate(-38.874 0)" fill="#ededed"/>
      <path id="Path_52339" data-name="Path 52339" d="M74.7,13.113V9.972h5.791v3.141l-2.9.927Z" transform="translate(-54.475 0)" fill="#ffd584"/>
      <path id="Path_52340" data-name="Path 52340" d="M101.227,9.972H96.088v3.14l2.9.928,2.9-.927V10.623a.651.651,0,0,0-.652-.651Z" transform="translate(-70.076 0)" fill="#ededed"/>
      <path id="Path_52341" data-name="Path 52341" d="M10.521,37.163H39.475V56.87H10.521Z" transform="translate(-7.673 -19.83)" fill="#fff"/>
      <path id="Path_52342" data-name="Path 52342" d="M6.93,27.247H0l2.848-5.673H8.639Z" transform="translate(0 -8.461)" fill="#fff"/>
      <path id="Path_52343" data-name="Path 52343" d="M32.53,27.247H25.6l1.709-5.673H33.1Z" transform="translate(-18.67 -8.461)" fill="#ffe7b9"/>
      <path id="Path_52344" data-name="Path 52344" d="M58.13,27.247H51.2l.57-5.673h5.791Z" transform="translate(-37.34 -8.461)" fill="#fff"/>
      <path id="Path_52345" data-name="Path 52345" d="M82.2,27.247h-6.93l-.57-5.673h5.791Z" transform="translate(-54.475 -8.461)" fill="#ffe7b9"/>
      <path id="Path_52346" data-name="Path 52346" d="M104.727,27.247H97.8l-1.709-5.673h5.791Z" transform="translate(-70.076 -8.461)" fill="#fff"/>
      <path id="Path_52347" data-name="Path 52347" d="M0,42.529v1.613a3.465,3.465,0,0,0,6.93,0V42.529Z" transform="translate(0 -23.744)" fill="#ddd"/>
      <path id="Path_52348" data-name="Path 52348" d="M51.2,42.529v1.613a3.465,3.465,0,0,0,6.93,0V42.529Z" transform="translate(-37.34 -23.744)" fill="#ddd"/>
      <path id="Path_52349" data-name="Path 52349" d="M102.4,42.529v1.613a3.465,3.465,0,0,0,6.93,0V42.529Z" transform="translate(-74.68 -23.744)" fill="#ddd"/>
      <path id="Path_52350" data-name="Path 52350" d="M25.6,42.529v1.613a3.465,3.465,0,0,0,6.93,0V42.529Z" transform="translate(-18.67 -23.744)" fill="#ffb11a"/>
      <path id="Path_52351" data-name="Path 52351" d="M76.8,42.529v1.613a3.465,3.465,0,0,0,6.93,0V42.529Z" transform="translate(-56.01 -23.744)" fill="#ffb11a"/>
      <path id="Path_52352" data-name="Path 52352" d="M26.84,74.746h6.594v9.533H26.84Z" transform="translate(-19.574 -47.239)" fill="red"/>
      <g id="Group_18598" data-name="Group 18598" transform="translate(18.278 27.507)">
        <path id="Path_52353" data-name="Path 52353" d="M67.519,74.746h3.3v3.3h-3.3Z" transform="translate(-67.519 -74.746)" fill="red"/>
        <path id="Path_52354" data-name="Path 52354" d="M85.174,74.746h3.3v3.3h-3.3Z" transform="translate(-80.395 -74.746)" fill="red"/>
        <path id="Path_52355" data-name="Path 52355" d="M67.519,91.058h3.3v3.3h-3.3Z" transform="translate(-67.519 -86.642)" fill="red"/>
        <path id="Path_52356" data-name="Path 52356" d="M85.174,91.058h3.3v3.3h-3.3Z" transform="translate(-80.395 -86.642)" fill="red"/>
      </g>
      <rect id="Rectangle_10161" data-name="Rectangle 10161" width="31.272" height="2.184" rx="1.081" transform="translate(1.689 37.04)" fill="#8e0000"/>
    </g>
    <g id="Group_18736" data-name="Group 18736">
      <g id="Ellipse_2047" data-name="Ellipse 2047" transform="translate(335 563)" fill="red" stroke="#fff" stroke-width="2">
        <circle cx="11" cy="11" r="11" stroke="none"/>
        <circle cx="11" cy="11" r="10" fill="none"/>
      </g>
      <path id="Union_31" data-name="Union 31" d="M-406.166-4555.167v-4.666h-4.667A1.167,1.167,0,0,1-412-4561a1.166,1.166,0,0,1,1.167-1.166h4.667v-4.667A1.166,1.166,0,0,1-405-4568a1.167,1.167,0,0,1,1.167,1.167v4.667h4.667A1.165,1.165,0,0,1-398-4561a1.167,1.167,0,0,1-1.166,1.167h-4.667v4.666A1.167,1.167,0,0,1-405-4554,1.167,1.167,0,0,1-406.166-4555.167Z" transform="translate(751 5135)" fill="#fff"/>
    </g>
    <text id="Đăng_ký" data-name="Đăng ký" transform="translate(331 596)" fill="#fff" font-size="12" font-family="Quicksand-Bold, Quicksand" font-weight="700"><tspan x="-24.018" y="0">Đăng ký</tspan></text>
  </g>
</svg>
