<svg xmlns="http://www.w3.org/2000/svg" width="22" height="22" viewBox="0 0 22 22">
  <g id="Group_23381" data-name="Group 23381" transform="translate(-26 -113)">
    <circle id="Ellipse_2019" data-name="Ellipse 2019" cx="11" cy="11" r="11" transform="translate(26 113)" fill="red"/>
    <g id="Group_18329" data-name="Group 18329" transform="translate(36.072 118.065)">
      <g id="Group_18328" data-name="Group 18328">
        <path id="Path_51423" data-name="Path 51423" d="M240.9,126.559l-3.044-2.283v-4.651a.846.846,0,1,0-1.691,0V124.7a.844.844,0,0,0,.338.677l3.383,2.537a.846.846,0,0,0,1.015-1.353Z" transform="translate(-236.169 -118.779)" fill="#fff"/>
      </g>
    </g>
  </g>
</svg>
