<svg id="_381595_board_color_icon" data-name="381595_board_color_icon" xmlns="http://www.w3.org/2000/svg" width="27.186" height="24.024" viewBox="0 0 27.186 24.024">
  <g id="Color_Board">
    <g id="Color_Board_1_">
      <path id="Board_-_Outline" data-name="Board - Outline" d="M22.077,23.024H11.012a12,12,0,0,1-8.484-20.5A11.927,11.927,0,0,1,11.012-1h8.694a6.445,6.445,0,0,1,6.48,6.48,6.445,6.445,0,0,1-6.48,6.48H18.125a1.424,1.424,0,1,0,0,2.848h3.952a4.108,4.108,0,1,1,0,8.217ZM11.012.894A10.1,10.1,0,0,0,3.867,18.157a10.045,10.045,0,0,0,7.145,2.973H22.077a2.214,2.214,0,1,0,0-4.429H18.125a3.318,3.318,0,1,1,0-6.636h1.581a4.586,4.586,0,1,0,0-9.171Z" transform="translate(1 1)" fill="#818181"/>
      <circle id="Yellow_x5F_Color" cx="2.367" cy="2.367" r="2.367" transform="translate(11.699 2.542)" fill="#818181"/>
      <circle id="Green_x5F_Color" cx="2.367" cy="2.367" r="2.367" transform="translate(6.017 4.436)" fill="#818181"/>
      <circle id="Red_x5F_Color" cx="2.367" cy="2.367" r="2.367" transform="translate(5.07 11.065)" fill="#818181"/>
      <circle id="Blue_x5F_Color" cx="2.367" cy="2.367" r="2.367" transform="translate(9.805 15.8)" fill="#818181"/>
    </g>
  </g>
</svg>
