<svg xmlns="http://www.w3.org/2000/svg" xmlns:xlink="http://www.w3.org/1999/xlink" width="29" height="29" viewBox="0 0 29 29">
  <defs>
    <linearGradient id="linear-gradient" x1="0.5" x2="0.5" y2="1" gradientUnits="objectBoundingBox">
      <stop offset="0" stop-color="#ff8900"/>
      <stop offset="1" stop-color="#ff8900"/>
    </linearGradient>
    <linearGradient id="linear-gradient-2" x1="0.5" y1="1" x2="0.5" gradientUnits="objectBoundingBox">
      <stop offset="0" stop-color="#ffe59a"/>
      <stop offset="1" stop-color="#ffffd5"/>
    </linearGradient>
    <linearGradient id="linear-gradient-3" y1="0" y2="1" xlink:href="#linear-gradient-2"/>
  </defs>
  <g id="dollar_7_" data-name="dollar (7)" transform="translate(3.223 3.223)">
    <g id="Group_18932" data-name="Group 18932" transform="translate(-2.993 -2.993)">
      <g id="Group_18919" data-name="Group 18919" transform="translate(0)">
        <circle id="Ellipse_2089" data-name="Ellipse 2089" cx="14.5" cy="14.5" r="14.5" transform="translate(-0.229 -0.229)" fill="#fff"/>
      </g>
    </g>
    <g id="Group_18920" data-name="Group 18920" transform="translate(-0.223 -0.223)">
      <g id="Group_18919-2" data-name="Group 18919">
        <circle id="Ellipse_2089-2" data-name="Ellipse 2089" cx="11.5" cy="11.5" r="11.5" transform="translate(0)" fill="url(#linear-gradient)"/>
      </g>
    </g>
    <g id="Group_18922" data-name="Group 18922" transform="translate(2.777 2.777)">
      <g id="Group_18921" data-name="Group 18921">
        <path id="Path_52811" data-name="Path 52811" d="M69.733,61a8.733,8.733,0,1,0,8.733,8.733A8.743,8.743,0,0,0,69.733,61Zm0,8.061a2.681,2.681,0,0,1,.672,5.278v.767a.672.672,0,1,1-1.343,0v-.767a2.684,2.684,0,0,1-2.015-2.592.672.672,0,1,1,1.343,0A1.343,1.343,0,1,0,69.733,70.4a2.681,2.681,0,0,1-.672-5.278v-.767a.672.672,0,0,1,1.343,0v.767a2.684,2.684,0,0,1,2.015,2.592.672.672,0,0,1-1.343,0,1.343,1.343,0,1,0-1.343,1.343Z" transform="translate(-61 -61)" fill="url(#linear-gradient-2)"/>
      </g>
    </g>
    <circle id="Ellipse_2090" data-name="Ellipse 2090" cx="8.5" cy="8.5" r="8.5" transform="translate(2.777 2.777)" fill="url(#linear-gradient-3)"/>
    <path id="Path_52812" data-name="Path 52812" d="M3.52,0H2.25V-4.9l-1.516.47V-5.458l2.65-.949H3.52ZM9.905-2.646a3.241,3.241,0,0,1-.549,2.03,1.917,1.917,0,0,1-1.608.7,1.931,1.931,0,0,1-1.6-.69A3.147,3.147,0,0,1,5.581-2.58V-3.757a3.2,3.2,0,0,1,.556-2.035,1.932,1.932,0,0,1,1.6-.694,1.934,1.934,0,0,1,1.6.688,3.137,3.137,0,0,1,.567,1.975ZM8.635-3.937A2.339,2.339,0,0,0,8.418-5.1a.735.735,0,0,0-.679-.363.722.722,0,0,0-.661.345,2.189,2.189,0,0,0-.226,1.079v1.556a2.455,2.455,0,0,0,.213,1.162.726.726,0,0,0,.683.38A.713.713,0,0,0,8.42-1.3a2.4,2.4,0,0,0,.215-1.116Zm6.434,1.292a3.241,3.241,0,0,1-.549,2.03,1.917,1.917,0,0,1-1.608.7,1.931,1.931,0,0,1-1.6-.69,3.147,3.147,0,0,1-.567-1.978V-3.757A3.2,3.2,0,0,1,11.3-5.792a1.932,1.932,0,0,1,1.6-.694,1.934,1.934,0,0,1,1.6.688,3.137,3.137,0,0,1,.567,1.975ZM13.8-3.937A2.339,2.339,0,0,0,13.581-5.1a.735.735,0,0,0-.679-.363.722.722,0,0,0-.661.345,2.189,2.189,0,0,0-.226,1.079v1.556a2.455,2.455,0,0,0,.213,1.162.726.726,0,0,0,.683.38.713.713,0,0,0,.672-.365A2.4,2.4,0,0,0,13.8-2.417Z" transform="translate(3.777 14.777)" fill="red"/>
  </g>
</svg>
