<svg xmlns="http://www.w3.org/2000/svg" width="36.154" height="31.689" viewBox="0 0 36.154 31.689">
  <g id="Path" transform="translate(1.25 1.25)">
    <path id="Path-2" data-name="Path" d="M117.827,171.189a1.205,1.205,0,0,1-.745-.258c-6.329-4.12-11.293-7.272-13.389-10.349l-.315-.466a16.081,16.081,0,0,1-2.378-8.3A9.67,9.67,0,0,1,110.515,142a9.378,9.378,0,0,1,7.26,3.471l.053.065A9.383,9.383,0,0,1,125.139,142a9.67,9.67,0,0,1,9.515,9.818,16.366,16.366,0,0,1-2.522,8.431l-.044.066-.182.268c-2.1,3.077-7.006,6.228-13.335,10.349A1.205,1.205,0,0,1,117.827,171.189Z" transform="translate(-101 -142)" fill="none" stroke="red" stroke-linecap="round" stroke-linejoin="round" stroke-width="2.5" fill-rule="evenodd"/>
  </g>
</svg>
