<svg xmlns="http://www.w3.org/2000/svg" width="19.158" height="23.947" viewBox="0 0 19.158 23.947">
  <g id="_6637790_bin_delete_garbage_recycle_remove_icon" data-name="6637790_bin_delete_garbage_recycle_remove_icon" transform="translate(-4 -2)">
    <path id="Path_111340" data-name="Path 111340" d="M6.2,7a1.2,1.2,0,0,1,1.2,1.2V21.368a1.2,1.2,0,0,0,1.2,1.2h9.579a1.2,1.2,0,0,0,1.2-1.2V8.2a1.2,1.2,0,0,1,2.395,0V21.368a3.592,3.592,0,0,1-3.592,3.592H8.592A3.592,3.592,0,0,1,5,21.368V8.2A1.2,1.2,0,0,1,6.2,7Z" transform="translate(0.197 0.987)" fill="#818181"/>
    <path id="Path_111341" data-name="Path 111341" d="M10.2,8a1.2,1.2,0,0,1,1.2,1.2v9.579a1.2,1.2,0,1,1-2.395,0V9.2A1.2,1.2,0,0,1,10.2,8Z" transform="translate(0.987 1.184)" fill="#818181"/>
    <path id="Path_111342" data-name="Path 111342" d="M14.2,8a1.2,1.2,0,0,1,1.2,1.2v9.579a1.2,1.2,0,1,1-2.395,0V9.2A1.2,1.2,0,0,1,14.2,8Z" transform="translate(1.776 1.184)" fill="#818181"/>
    <path id="Path_111343" data-name="Path 111343" d="M4,5.2A1.2,1.2,0,0,1,5.2,4H21.96a1.2,1.2,0,1,1,0,2.395H5.2A1.2,1.2,0,0,1,4,5.2Z" transform="translate(0 0.395)" fill="#818181"/>
    <path id="Path_111344" data-name="Path 111344" d="M8,3.2A1.2,1.2,0,0,1,9.2,2h7.184a1.2,1.2,0,0,1,1.2,1.2v1.2H8Z" transform="translate(0.789 0)" fill="#818181"/>
  </g>
</svg>
