<svg xmlns="http://www.w3.org/2000/svg" width="47.602" height="47.602" viewBox="0 0 47.602 47.602">
  <g id="Group_12908" data-name="Group 12908" transform="translate(-148.027 -279.154)">
    <path id="Path_43037" data-name="Path 43037" d="M95.6,71.8A23.8,23.8,0,1,1,71.8,48,23.8,23.8,0,0,1,95.6,71.8Zm0,0" transform="translate(100.027 231.154)" fill="#fc3f3f"/>
    <path id="Path_43038" data-name="Path 43038" d="M128,132.981a4.987,4.987,0,0,1,7.777-4.133l1.247,7.054-3.948,2.065A14.173,14.173,0,0,0,141.3,146.2l2.061-3.951,7.054,1.247a4.986,4.986,0,0,1-4.136,7.774A18.284,18.284,0,0,1,128,132.981Zm0,0" transform="translate(368.952 304.606) rotate(135)" fill="#fff"/>
  </g>
</svg>
