<svg xmlns="http://www.w3.org/2000/svg" width="17" height="17" viewBox="0 0 17 17">
    <defs>
        <style>.a{fill:none;}.b{fill:#818181;}</style>
    </defs>
    <rect class="a" width="17" height="17" />
    <path class="b"
        d="M15.48,13.887l-3.629-3.774a6.153,6.153,0,1,0-4.712,2.2A6.09,6.09,0,0,0,10.667,11.2L14.323,15a.8.8,0,1,0,1.157-1.113ZM7.14,1.606a4.55,4.55,0,1,1-4.55,4.55A4.555,4.555,0,0,1,7.14,1.606Z"
        transform="translate(-0.175 0.809)" />
</svg>