<svg xmlns="http://www.w3.org/2000/svg" width="130" height="39.932" viewBox="0 0 130 39.932">
  <g id="Group_20045" data-name="Group 20045" transform="translate(-122 -699.034)">
    <g id="Group_19600" data-name="Group 19600" transform="translate(78.909 563.133)">
      <g id="Group_19362" data-name="Group 19362" transform="translate(43.091 137.973)">
        <path id="Path_53601" data-name="Path 53601" d="M228.538,169.057c-3.148,1.1-6.857.708-10.228.252A344,344,0,0,0,124,169.6c-3.04.43-6.125.9-9.155.375a10.657,10.657,0,0,1-7.682-5.187c-1.624-2.984-1.619-6.732-1.548-10.251a42.442,42.442,0,0,1,1.235-11.169,15.427,15.427,0,0,1,2.5-5.124,10.439,10.439,0,0,1,2.342-2.231c1.019-.648,2.486-.55,3.619-.691q4.493-.561,9-1.012,9-.9,18.036-1.369c9.676-.506,19.4-.558,29.061-.59q24.992-.082,49.951,1.755c3.592.265,7.471.693,10.151,3.458,3.081,3.179,3.618,8.416,3.925,13.164.365,5.642.423,12.115-3.187,15.955A9.088,9.088,0,0,1,228.538,169.057Z" transform="translate(-105.59 -132.343)" fill="#ffba00"/>
      </g>
      <g id="Group_19358" data-name="Group 19358" transform="translate(43.091 135.901)">
        <path id="Path_53601-2" data-name="Path 53601" d="M228.538,169.057c-3.148,1.1-6.857.708-10.228.252A344,344,0,0,0,124,169.6c-3.04.43-6.125.9-9.155.375a10.657,10.657,0,0,1-7.682-5.187c-1.624-2.984-1.619-6.732-1.548-10.251a42.442,42.442,0,0,1,1.235-11.169,15.427,15.427,0,0,1,2.5-5.124,10.439,10.439,0,0,1,2.342-2.231c1.019-.648,2.486-.55,3.619-.691q4.493-.561,9-1.012,9-.9,18.036-1.369c9.676-.506,19.4-.558,29.061-.59q24.992-.082,49.951,1.755c3.592.265,7.471.693,10.151,3.458,3.081,3.179,3.618,8.416,3.925,13.164.365,5.642.423,12.115-3.187,15.955A9.088,9.088,0,0,1,228.538,169.057Z" transform="translate(-105.59 -132.343)" fill="#e2421b"/>
      </g>
      <path id="Path_53922" data-name="Path 53922" d="M123.694,169.974l31.235-31.235q-3.471.1-6.937.25-8.644.388-17.265,1.139-4.309.375-8.611.842a9.559,9.559,0,0,0-3.464.575,9.565,9.565,0,0,0-2.242,1.856,12.241,12.241,0,0,0-2.39,4.263,30.928,30.928,0,0,0-1.182,9.291c-.068,2.928-.073,6.045,1.482,8.528a10.36,10.36,0,0,0,7.354,4.315A17.651,17.651,0,0,0,123.694,169.974Z" transform="translate(-65.983 0.474)" fill="#e2421b" opacity="0.7" style="mix-blend-mode: screen;isolation: isolate"/>
      <g id="Group_19359" data-name="Group 19359" transform="translate(128.222 140.11)" style="mix-blend-mode: multiply;isolation: isolate">
        <path id="Path_53603" data-name="Path 53603" d="M349.182,154.344c-.295-3.95-.809-8.306-3.758-10.951-2.565-2.3-6.278-2.657-9.717-2.877-.259-.017-.518-.03-.776-.047a.389.389,0,0,1-.128.22l-27.025,27.024q12.54.634,25.019,2.09c3.227.38,6.778.7,9.791-.209a8.948,8.948,0,0,0,3.543-1.978C349.587,164.423,349.532,159.038,349.182,154.344Z" transform="translate(-307.779 -140.47)" fill="#e2421b"/>
      </g>
    </g>
    <g id="Group_20041" data-name="Group 20041">
      <path id="Path_56078" data-name="Path 56078" d="M-19.224-11.664c.048-.456.1-.912.168-1.368q.072-.54.144-1.152a9.337,9.337,0,0,0,.072-1.056,1.277,1.277,0,0,0-.072-.552q-.108-.18-1.08-.36c-.648-.12-1.464-.24-2.424-.336s-2.016-.168-3.144-.24-2.208-.1-3.216-.1a22.572,22.572,0,0,0-2.76.144,2.48,2.48,0,0,0-1.392.432,3.825,3.825,0,0,0-.288.984c-.1.48-.192,1.008-.264,1.584s-.144,1.152-.192,1.728-.072,1.056-.072,1.44c0,.456.024.7.1.72a1.007,1.007,0,0,0,.36.024c.216,0,.5,0,.864-.024s.792-.048,1.3-.072,1.032-.072,1.608-.12v2.16c0,.72,0,1.488.024,2.3s.048,1.608.1,2.352.1,1.44.168,2.064A8.491,8.491,0,0,0-28.944.408a1.853,1.853,0,0,0,.36.048h.36A11.625,11.625,0,0,0-26.952.384c.432-.048.816-.12,1.176-.192a5.146,5.146,0,0,0,.888-.24,1.08,1.08,0,0,0,.408-.216,2.941,2.941,0,0,0,.1-.576c.048-.36.1-.816.144-1.392s.1-1.224.144-1.944.1-1.464.144-2.232.1-1.512.144-2.232.072-1.368.1-1.944c1.128-.168,2.064-.312,2.832-.432a5.437,5.437,0,0,0,1.608-.432Zm.936-2.784c-.024.432-.048.936-.048,1.512v1.848c0,.984,0,2.04.024,3.144s.072,2.16.12,3.168.12,1.92.192,2.736a15.066,15.066,0,0,0,.264,1.872,1.05,1.05,0,0,0,.432.144q.36.072.864.144c.336.048.7.072,1.08.1s.744.048,1.08.048A6.309,6.309,0,0,0-13.248.192c.288-.048.432-.12.456-.216l.216-8.016a1.2,1.2,0,0,1,.288-.072.55.55,0,0,1,.288,0c.072.048.12.264.144.672s.048.888.072,1.464.024,1.2.024,1.872v1.9c0,.6,0,1.1-.024,1.512s-.024.648-.024.72c.048.12.216.192.528.24a7.289,7.289,0,0,0,1.1.072c.408,0,.84-.024,1.3-.048s.864-.072,1.248-.12a6.746,6.746,0,0,0,.96-.192q.4-.108.432-.216c0-.024.048-.264.12-.72s.168-1.008.264-1.68.192-1.44.264-2.28.12-1.656.12-2.448a13.768,13.768,0,0,0-.072-1.44,8.974,8.974,0,0,0-.216-1.248,4.021,4.021,0,0,0-.36-.96,1.334,1.334,0,0,0-.576-.576,2.817,2.817,0,0,0-.96-.312,7.041,7.041,0,0,0-.984-.072,6.976,6.976,0,0,0-1.44.144A11.04,11.04,0,0,0-11.3-11.5c-.36.12-.648.24-.864.336l-.336.144c0-.072,0-.312.024-.744s.048-.912.072-1.416.024-.984.024-1.416-.024-.672-.1-.72a1.228,1.228,0,0,0-.5-.216,3.325,3.325,0,0,0-.72-.072,7.657,7.657,0,0,0-1.416.144c-.5.1-.984.216-1.44.336a7.012,7.012,0,0,0-1.152.408,1.1,1.1,0,0,0-.552.408ZM3.336-17.832a3.8,3.8,0,0,1,.312-.312c.144-.1.336-.216.5-.312.168-.12.288-.192.432-.312a1.019,1.019,0,0,1,.288-.12l.12.312c-.024.048-.144.072-.24.144-.12.072-.264.192-.408.288a1.991,1.991,0,0,0-.408.36c-.144.072-.216.144-.216.168a1.181,1.181,0,0,0-.024.336v.48a.664.664,0,0,1,.024.216,1.866,1.866,0,0,1,.024.312c0,.024.048.048.168.072.072,0,.144.024.288.024h.432c.144,0,.264-.024.408-.024s.5-.072.624-.072a.422.422,0,0,1,.144-.024c.024-.024.024-.072.048-.192v-.576c0-.048.192-.192.192-.192a2.931,2.931,0,0,1,.384-.336,3.886,3.886,0,0,0,.672-.48c-.024-.192.024-.528,0-.744a4.054,4.054,0,0,0-.216-.816,3.976,3.976,0,0,0-.312-.84,5.253,5.253,0,0,0-.48-.6c-.024,0-.384-.024-.552-.024-.144,0-.384.024-.648.048a5.34,5.34,0,0,0-.744.168,5.7,5.7,0,0,0-.816.216,3.762,3.762,0,0,0-.7.336.876.876,0,0,0-.384.408,4.009,4.009,0,0,0,.144.912c.12.24.24.48.336.648a4.161,4.161,0,0,1,.36.456c.144.12.192.144.216.144ZM-.168-3.576v-.792c.36.048.72.072,1.08.1s.72.024,1.08.024c.6,0,1.176-.024,1.752-.072s1.08-.1,1.536-.168.816-.144,1.1-.216a1.392,1.392,0,0,0,.5-.192,1.227,1.227,0,0,0,.24-.5,5.876,5.876,0,0,0,.192-.864c.048-.336.1-.72.12-1.128s.048-.816.048-1.224q0-.792-.072-1.512A4.505,4.505,0,0,0,7.152-11.3a2.9,2.9,0,0,0-.864-.432,8,8,0,0,0-1.2-.288,12.12,12.12,0,0,0-1.344-.144c-.456-.024-.888-.048-1.3-.048a21.8,21.8,0,0,0-2.184.12c-.72.072-1.392.168-1.992.288a9.559,9.559,0,0,0-1.56.432,2.262,2.262,0,0,0-.888.528,16.243,16.243,0,0,0-.312,1.776,15.239,15.239,0,0,0-.1,1.872c0,.792.024,1.584.1,2.352s.168,1.464.264,2.088A12.694,12.694,0,0,0-3.912-1.2,2.747,2.747,0,0,0-3.6-.408a3.1,3.1,0,0,0,.744.336,6.128,6.128,0,0,0,1.08.216c.408.048.84.1,1.3.12S.432.312.912.312q.972,0,1.944-.072T4.584.1A11.883,11.883,0,0,0,5.856-.072,1.836,1.836,0,0,0,6.432-.24a2.1,2.1,0,0,0,.312-.912A7.63,7.63,0,0,0,6.888-2.64a5.884,5.884,0,0,0-.048-.648A1.533,1.533,0,0,0,6.7-3.816a16.322,16.322,0,0,1-2.376.384c-.792.072-1.512.1-2.16.1H1.2A6.989,6.989,0,0,1,.456-3.36Q.1-3.4-.192-3.432Zm-.024-3.24a2.619,2.619,0,0,1,.5-.216,5.313,5.313,0,0,1,.72-.168,4.419,4.419,0,0,1,.792-.072,1.36,1.36,0,0,1,.6.1c.024,0,.024.048.024.12v.264a1.168,1.168,0,0,1-.024.288.37.37,0,0,1-.072.168,1.026,1.026,0,0,1-.36.072c-.216.024-.456.048-.744.072s-.576.024-.84.024A2.415,2.415,0,0,1-.24-6.24a.828.828,0,0,1-.024-.288A1.083,1.083,0,0,1-.24-6.84Zm-1.9-7.728a.949.949,0,0,0,.192.528,2.556,2.556,0,0,0,.48.552,5.084,5.084,0,0,0,.576.48,1.263,1.263,0,0,0,.552.192A1.1,1.1,0,0,0,.1-12.936a4.962,4.962,0,0,0,.6-.36c.24-.144.528-.312.792-.5.264.144.528.288.768.432.192.1.384.24.576.336a1.622,1.622,0,0,0,.48.192.949.949,0,0,0,.5-.192,2.706,2.706,0,0,0,.576-.5,3.836,3.836,0,0,0,.528-.576,2.287,2.287,0,0,0,.216-.456c0-.048-.1-.144-.24-.264a6.747,6.747,0,0,0-.576-.48c-.216-.168-.48-.336-.768-.528-.288-.216-.576-.408-.84-.576s-.5-.288-.72-.408a2.413,2.413,0,0,0-.528-.216C1.2-16.9.84-16.7.432-16.44a8.767,8.767,0,0,0-1.2.816c-.48.312-.912.672-1.416,1.056Zm16.656-.168a4.046,4.046,0,0,0-.072.672c-.024.384-.024.888-.024,1.488,0,.672,0,1.44.024,2.3s.048,1.752.1,2.664.1,1.8.144,2.688.1,1.68.168,2.4.144,1.3.216,1.752.144.7.216.744A1.808,1.808,0,0,0,16.1.144c.408.024.864.048,1.344.048A13.9,13.9,0,0,0,18.912.12Q19.6.048,19.7-.1a3.815,3.815,0,0,0,.12-.72c.048-.432.1-.984.144-1.68s.1-1.464.144-2.328.1-1.752.144-2.664.072-1.824.1-2.712.024-1.7.024-2.448c0-.768-.024-1.392-.048-1.9a2.6,2.6,0,0,0-.144-.936,1.6,1.6,0,0,0-.888-.168,10.569,10.569,0,0,0-1.368.12,14.074,14.074,0,0,0-1.512.288c-.48.12-.888.24-1.248.36s-.552.24-.6.336ZM25.8,1.2V2.376c0,.312.024.576.048.888.024.264.072.48.1.624a.865.865,0,0,0,.48.144c.264.024.528.048.816.048s.552-.024.816-.048a2.265,2.265,0,0,0,.5-.1.848.848,0,0,0,.1-.288,1.948,1.948,0,0,0,.024-.408c.024-.216.024-.408.048-.6V1.512a1.312,1.312,0,0,0-.048-.288c0-.024-.072-.048-.192-.072-.168-.024-.336-.048-.528-.072-.192,0-.432-.024-.624-.024a3.371,3.371,0,0,0-.7,0,1.756,1.756,0,0,0-.528.072.816.816,0,0,0-.336.12Zm-.144-4.776v-.792c.36.048.72.072,1.08.1s.72.024,1.08.024c.6,0,1.176-.024,1.752-.072s1.08-.1,1.536-.168.816-.144,1.1-.216a1.392,1.392,0,0,0,.5-.192,1.227,1.227,0,0,0,.24-.5,5.875,5.875,0,0,0,.192-.864c.048-.336.1-.72.12-1.128s.048-.816.048-1.224q0-.792-.072-1.512a4.505,4.505,0,0,0-.264-1.176,2.9,2.9,0,0,0-.864-.432,8,8,0,0,0-1.2-.288,12.12,12.12,0,0,0-1.344-.144c-.456-.024-.888-.048-1.3-.048a21.8,21.8,0,0,0-2.184.12c-.72.072-1.392.168-1.992.288a9.559,9.559,0,0,0-1.56.432,2.262,2.262,0,0,0-.888.528,16.243,16.243,0,0,0-.312,1.776,15.239,15.239,0,0,0-.1,1.872c0,.792.024,1.584.1,2.352S21.5-3.384,21.6-2.76a12.693,12.693,0,0,0,.312,1.56,2.747,2.747,0,0,0,.312.792,3.1,3.1,0,0,0,.744.336,6.128,6.128,0,0,0,1.08.216c.408.048.84.1,1.3.12s.912.048,1.392.048q.972,0,1.944-.072T30.408.1A11.883,11.883,0,0,0,31.68-.072a1.836,1.836,0,0,0,.576-.168,2.1,2.1,0,0,0,.312-.912,7.63,7.63,0,0,0,.144-1.488,5.884,5.884,0,0,0-.048-.648,1.533,1.533,0,0,0-.144-.528,16.322,16.322,0,0,1-2.376.384c-.792.072-1.512.1-2.16.1h-.96a6.989,6.989,0,0,1-.744-.024q-.36-.036-.648-.072Zm-.024-3.24a2.619,2.619,0,0,1,.5-.216,5.313,5.313,0,0,1,.72-.168,4.419,4.419,0,0,1,.792-.072,1.36,1.36,0,0,1,.6.1c.024,0,.024.048.024.12v.264a1.168,1.168,0,0,1-.024.288.37.37,0,0,1-.072.168,1.026,1.026,0,0,1-.36.072c-.216.024-.456.048-.744.072s-.576.024-.84.024a2.415,2.415,0,0,1-.648-.072.828.828,0,0,1-.024-.288,1.083,1.083,0,0,1,.024-.312Zm-1.9-7.728a.949.949,0,0,0,.192.528,2.556,2.556,0,0,0,.48.552,5.084,5.084,0,0,0,.576.48,1.263,1.263,0,0,0,.552.192,1.1,1.1,0,0,0,.384-.144,4.962,4.962,0,0,0,.6-.36c.24-.144.528-.312.792-.5.264.144.528.288.768.432.192.1.384.24.576.336a1.622,1.622,0,0,0,.48.192.949.949,0,0,0,.5-.192,2.706,2.706,0,0,0,.576-.5,3.836,3.836,0,0,0,.528-.576,2.287,2.287,0,0,0,.216-.456c0-.048-.1-.144-.24-.264a6.747,6.747,0,0,0-.576-.48c-.216-.168-.48-.336-.768-.528-.288-.216-.576-.408-.84-.576s-.5-.288-.72-.408a2.413,2.413,0,0,0-.528-.216c-.264.144-.624.336-1.032.6a8.767,8.767,0,0,0-1.2.816c-.48.312-.912.672-1.416,1.056Z" transform="translate(188 725)" fill="#fff" stroke="#bc0900" stroke-width="3"/>
      <path id="Path_56079" data-name="Path 56079" d="M-19.224-11.664c.048-.456.1-.912.168-1.368q.072-.54.144-1.152a9.337,9.337,0,0,0,.072-1.056,1.277,1.277,0,0,0-.072-.552q-.108-.18-1.08-.36c-.648-.12-1.464-.24-2.424-.336s-2.016-.168-3.144-.24-2.208-.1-3.216-.1a22.572,22.572,0,0,0-2.76.144,2.48,2.48,0,0,0-1.392.432,3.825,3.825,0,0,0-.288.984c-.1.48-.192,1.008-.264,1.584s-.144,1.152-.192,1.728-.072,1.056-.072,1.44c0,.456.024.7.1.72a1.007,1.007,0,0,0,.36.024c.216,0,.5,0,.864-.024s.792-.048,1.3-.072,1.032-.072,1.608-.12v2.16c0,.72,0,1.488.024,2.3s.048,1.608.1,2.352.1,1.44.168,2.064A8.491,8.491,0,0,0-28.944.408a1.853,1.853,0,0,0,.36.048h.36A11.625,11.625,0,0,0-26.952.384c.432-.048.816-.12,1.176-.192a5.146,5.146,0,0,0,.888-.24,1.08,1.08,0,0,0,.408-.216,2.941,2.941,0,0,0,.1-.576c.048-.36.1-.816.144-1.392s.1-1.224.144-1.944.1-1.464.144-2.232.1-1.512.144-2.232.072-1.368.1-1.944c1.128-.168,2.064-.312,2.832-.432a5.437,5.437,0,0,0,1.608-.432Zm.936-2.784c-.024.432-.048.936-.048,1.512v1.848c0,.984,0,2.04.024,3.144s.072,2.16.12,3.168.12,1.92.192,2.736a15.066,15.066,0,0,0,.264,1.872,1.05,1.05,0,0,0,.432.144q.36.072.864.144c.336.048.7.072,1.08.1s.744.048,1.08.048A6.309,6.309,0,0,0-13.248.192c.288-.048.432-.12.456-.216l.216-8.016a1.2,1.2,0,0,1,.288-.072.55.55,0,0,1,.288,0c.072.048.12.264.144.672s.048.888.072,1.464.024,1.2.024,1.872v1.9c0,.6,0,1.1-.024,1.512s-.024.648-.024.72c.048.12.216.192.528.24a7.289,7.289,0,0,0,1.1.072c.408,0,.84-.024,1.3-.048s.864-.072,1.248-.12a6.746,6.746,0,0,0,.96-.192q.4-.108.432-.216c0-.024.048-.264.12-.72s.168-1.008.264-1.68.192-1.44.264-2.28.12-1.656.12-2.448a13.768,13.768,0,0,0-.072-1.44,8.974,8.974,0,0,0-.216-1.248,4.021,4.021,0,0,0-.36-.96,1.334,1.334,0,0,0-.576-.576,2.817,2.817,0,0,0-.96-.312,7.041,7.041,0,0,0-.984-.072,6.976,6.976,0,0,0-1.44.144A11.04,11.04,0,0,0-11.3-11.5c-.36.12-.648.24-.864.336l-.336.144c0-.072,0-.312.024-.744s.048-.912.072-1.416.024-.984.024-1.416-.024-.672-.1-.72a1.228,1.228,0,0,0-.5-.216,3.325,3.325,0,0,0-.72-.072,7.657,7.657,0,0,0-1.416.144c-.5.1-.984.216-1.44.336a7.012,7.012,0,0,0-1.152.408,1.1,1.1,0,0,0-.552.408ZM3.336-17.832a3.8,3.8,0,0,1,.312-.312c.144-.1.336-.216.5-.312.168-.12.288-.192.432-.312a1.019,1.019,0,0,1,.288-.12l.12.312c-.024.048-.144.072-.24.144-.12.072-.264.192-.408.288a1.991,1.991,0,0,0-.408.36c-.144.072-.216.144-.216.168a1.181,1.181,0,0,0-.024.336v.48a.664.664,0,0,1,.024.216,1.866,1.866,0,0,1,.024.312c0,.024.048.048.168.072.072,0,.144.024.288.024h.432c.144,0,.264-.024.408-.024s.5-.072.624-.072a.422.422,0,0,1,.144-.024c.024-.024.024-.072.048-.192v-.576c0-.048.192-.192.192-.192a2.931,2.931,0,0,1,.384-.336,3.886,3.886,0,0,0,.672-.48c-.024-.192.024-.528,0-.744a4.054,4.054,0,0,0-.216-.816,3.976,3.976,0,0,0-.312-.84,5.253,5.253,0,0,0-.48-.6c-.024,0-.384-.024-.552-.024-.144,0-.384.024-.648.048a5.34,5.34,0,0,0-.744.168,5.7,5.7,0,0,0-.816.216,3.762,3.762,0,0,0-.7.336.876.876,0,0,0-.384.408,4.009,4.009,0,0,0,.144.912c.12.24.24.48.336.648a4.161,4.161,0,0,1,.36.456c.144.12.192.144.216.144ZM-.168-3.576v-.792c.36.048.72.072,1.08.1s.72.024,1.08.024c.6,0,1.176-.024,1.752-.072s1.08-.1,1.536-.168.816-.144,1.1-.216a1.392,1.392,0,0,0,.5-.192,1.227,1.227,0,0,0,.24-.5,5.876,5.876,0,0,0,.192-.864c.048-.336.1-.72.12-1.128s.048-.816.048-1.224q0-.792-.072-1.512A4.505,4.505,0,0,0,7.152-11.3a2.9,2.9,0,0,0-.864-.432,8,8,0,0,0-1.2-.288,12.12,12.12,0,0,0-1.344-.144c-.456-.024-.888-.048-1.3-.048a21.8,21.8,0,0,0-2.184.12c-.72.072-1.392.168-1.992.288a9.559,9.559,0,0,0-1.56.432,2.262,2.262,0,0,0-.888.528,16.243,16.243,0,0,0-.312,1.776,15.239,15.239,0,0,0-.1,1.872c0,.792.024,1.584.1,2.352s.168,1.464.264,2.088A12.694,12.694,0,0,0-3.912-1.2,2.747,2.747,0,0,0-3.6-.408a3.1,3.1,0,0,0,.744.336,6.128,6.128,0,0,0,1.08.216c.408.048.84.1,1.3.12S.432.312.912.312q.972,0,1.944-.072T4.584.1A11.883,11.883,0,0,0,5.856-.072,1.836,1.836,0,0,0,6.432-.24a2.1,2.1,0,0,0,.312-.912A7.63,7.63,0,0,0,6.888-2.64a5.884,5.884,0,0,0-.048-.648A1.533,1.533,0,0,0,6.7-3.816a16.322,16.322,0,0,1-2.376.384c-.792.072-1.512.1-2.16.1H1.2A6.989,6.989,0,0,1,.456-3.36Q.1-3.4-.192-3.432Zm-.024-3.24a2.619,2.619,0,0,1,.5-.216,5.313,5.313,0,0,1,.72-.168,4.419,4.419,0,0,1,.792-.072,1.36,1.36,0,0,1,.6.1c.024,0,.024.048.024.12v.264a1.168,1.168,0,0,1-.024.288.37.37,0,0,1-.072.168,1.026,1.026,0,0,1-.36.072c-.216.024-.456.048-.744.072s-.576.024-.84.024A2.415,2.415,0,0,1-.24-6.24a.828.828,0,0,1-.024-.288A1.083,1.083,0,0,1-.24-6.84Zm-1.9-7.728a.949.949,0,0,0,.192.528,2.556,2.556,0,0,0,.48.552,5.084,5.084,0,0,0,.576.48,1.263,1.263,0,0,0,.552.192A1.1,1.1,0,0,0,.1-12.936a4.962,4.962,0,0,0,.6-.36c.24-.144.528-.312.792-.5.264.144.528.288.768.432.192.1.384.24.576.336a1.622,1.622,0,0,0,.48.192.949.949,0,0,0,.5-.192,2.706,2.706,0,0,0,.576-.5,3.836,3.836,0,0,0,.528-.576,2.287,2.287,0,0,0,.216-.456c0-.048-.1-.144-.24-.264a6.747,6.747,0,0,0-.576-.48c-.216-.168-.48-.336-.768-.528-.288-.216-.576-.408-.84-.576s-.5-.288-.72-.408a2.413,2.413,0,0,0-.528-.216C1.2-16.9.84-16.7.432-16.44a8.767,8.767,0,0,0-1.2.816c-.48.312-.912.672-1.416,1.056Zm16.656-.168a4.046,4.046,0,0,0-.072.672c-.024.384-.024.888-.024,1.488,0,.672,0,1.44.024,2.3s.048,1.752.1,2.664.1,1.8.144,2.688.1,1.68.168,2.4.144,1.3.216,1.752.144.7.216.744A1.808,1.808,0,0,0,16.1.144c.408.024.864.048,1.344.048A13.9,13.9,0,0,0,18.912.12Q19.6.048,19.7-.1a3.815,3.815,0,0,0,.12-.72c.048-.432.1-.984.144-1.68s.1-1.464.144-2.328.1-1.752.144-2.664.072-1.824.1-2.712.024-1.7.024-2.448c0-.768-.024-1.392-.048-1.9a2.6,2.6,0,0,0-.144-.936,1.6,1.6,0,0,0-.888-.168,10.569,10.569,0,0,0-1.368.12,14.074,14.074,0,0,0-1.512.288c-.48.12-.888.24-1.248.36s-.552.24-.6.336ZM25.8,1.2V2.376c0,.312.024.576.048.888.024.264.072.48.1.624a.865.865,0,0,0,.48.144c.264.024.528.048.816.048s.552-.024.816-.048a2.265,2.265,0,0,0,.5-.1.848.848,0,0,0,.1-.288,1.948,1.948,0,0,0,.024-.408c.024-.216.024-.408.048-.6V1.512a1.312,1.312,0,0,0-.048-.288c0-.024-.072-.048-.192-.072-.168-.024-.336-.048-.528-.072-.192,0-.432-.024-.624-.024a3.371,3.371,0,0,0-.7,0,1.756,1.756,0,0,0-.528.072.816.816,0,0,0-.336.12Zm-.144-4.776v-.792c.36.048.72.072,1.08.1s.72.024,1.08.024c.6,0,1.176-.024,1.752-.072s1.08-.1,1.536-.168.816-.144,1.1-.216a1.392,1.392,0,0,0,.5-.192,1.227,1.227,0,0,0,.24-.5,5.875,5.875,0,0,0,.192-.864c.048-.336.1-.72.12-1.128s.048-.816.048-1.224q0-.792-.072-1.512a4.505,4.505,0,0,0-.264-1.176,2.9,2.9,0,0,0-.864-.432,8,8,0,0,0-1.2-.288,12.12,12.12,0,0,0-1.344-.144c-.456-.024-.888-.048-1.3-.048a21.8,21.8,0,0,0-2.184.12c-.72.072-1.392.168-1.992.288a9.559,9.559,0,0,0-1.56.432,2.262,2.262,0,0,0-.888.528,16.243,16.243,0,0,0-.312,1.776,15.239,15.239,0,0,0-.1,1.872c0,.792.024,1.584.1,2.352S21.5-3.384,21.6-2.76a12.693,12.693,0,0,0,.312,1.56,2.747,2.747,0,0,0,.312.792,3.1,3.1,0,0,0,.744.336,6.128,6.128,0,0,0,1.08.216c.408.048.84.1,1.3.12s.912.048,1.392.048q.972,0,1.944-.072T30.408.1A11.883,11.883,0,0,0,31.68-.072a1.836,1.836,0,0,0,.576-.168,2.1,2.1,0,0,0,.312-.912,7.63,7.63,0,0,0,.144-1.488,5.884,5.884,0,0,0-.048-.648,1.533,1.533,0,0,0-.144-.528,16.322,16.322,0,0,1-2.376.384c-.792.072-1.512.1-2.16.1h-.96a6.989,6.989,0,0,1-.744-.024q-.36-.036-.648-.072Zm-.024-3.24a2.619,2.619,0,0,1,.5-.216,5.313,5.313,0,0,1,.72-.168,4.419,4.419,0,0,1,.792-.072,1.36,1.36,0,0,1,.6.1c.024,0,.024.048.024.12v.264a1.168,1.168,0,0,1-.024.288.37.37,0,0,1-.072.168,1.026,1.026,0,0,1-.36.072c-.216.024-.456.048-.744.072s-.576.024-.84.024a2.415,2.415,0,0,1-.648-.072.828.828,0,0,1-.024-.288,1.083,1.083,0,0,1,.024-.312Zm-1.9-7.728a.949.949,0,0,0,.192.528,2.556,2.556,0,0,0,.48.552,5.084,5.084,0,0,0,.576.48,1.263,1.263,0,0,0,.552.192,1.1,1.1,0,0,0,.384-.144,4.962,4.962,0,0,0,.6-.36c.24-.144.528-.312.792-.5.264.144.528.288.768.432.192.1.384.24.576.336a1.622,1.622,0,0,0,.48.192.949.949,0,0,0,.5-.192,2.706,2.706,0,0,0,.576-.5,3.836,3.836,0,0,0,.528-.576,2.287,2.287,0,0,0,.216-.456c0-.048-.1-.144-.24-.264a6.747,6.747,0,0,0-.576-.48c-.216-.168-.48-.336-.768-.528-.288-.216-.576-.408-.84-.576s-.5-.288-.72-.408a2.413,2.413,0,0,0-.528-.216c-.264.144-.624.336-1.032.6a8.767,8.767,0,0,0-1.2.816c-.48.312-.912.672-1.416,1.056Z" transform="translate(188 725)" fill="#ffd584"/>
    </g>
  </g>
</svg>
